<?xml version="1.0" encoding="UTF-8" standalone="no"?>
<!-- Created with Inkscape (http://www.inkscape.org/) -->

<svg
   xmlns:dc="http://purl.org/dc/elements/1.1/"
   xmlns:cc="http://creativecommons.org/ns#"
   xmlns:rdf="http://www.w3.org/1999/02/22-rdf-syntax-ns#"
   xmlns:svg="http://www.w3.org/2000/svg"
   xmlns="http://www.w3.org/2000/svg"
   xmlns:sodipodi="http://sodipodi.sourceforge.net/DTD/sodipodi-0.dtd"
   xmlns:inkscape="http://www.inkscape.org/namespaces/inkscape"
   width="25"
   height="25"
   viewBox="0 0 6.6145832 6.6145835"
   version="1.1"
   id="svg8"
   inkscape:version="0.92.4 5da689c313, 2019-01-14"
   sodipodi:docname="map_zone_past.svg">
  <defs
     id="defs2">
    <clipPath
       clipPathUnits="userSpaceOnUse"
       id="clipPath1402">
      <rect
         y="291.17917"
         x="0.79374999"
         height="5.0270834"
         width="5.0270834"
         id="rect1404"
         style="opacity:1;fill:#323232;fill-opacity:1;stroke:none;stroke-width:0.2393849;stroke-linecap:round;stroke-linejoin:round;stroke-miterlimit:4;stroke-dasharray:none;stroke-opacity:1;paint-order:normal" />
    </clipPath>
  </defs>
  <sodipodi:namedview
     id="base"
     pagecolor="#ffffff"
     bordercolor="#666666"
     borderopacity="1.0"
     inkscape:pageopacity="0.0"
     inkscape:pageshadow="2"
     inkscape:zoom="32"
     inkscape:cx="13.220512"
     inkscape:cy="16.230563"
     inkscape:document-units="mm"
     inkscape:current-layer="g1243"
     showgrid="true"
     units="px"
     inkscape:window-width="2560"
     inkscape:window-height="1440"
     inkscape:window-x="2560"
     inkscape:window-y="0"
     inkscape:window-maximized="1">
    <inkscape:grid
       type="xygrid"
       id="grid3713" />
  </sodipodi:namedview>
  <metadata
     id="metadata5">
    <rdf:RDF>
      <cc:Work
         rdf:about="">
        <dc:format>image/svg+xml</dc:format>
        <dc:type
           rdf:resource="http://purl.org/dc/dcmitype/StillImage" />
        <dc:title></dc:title>
      </cc:Work>
    </rdf:RDF>
  </metadata>
  <g
     inkscape:label="Layer 1"
     inkscape:groupmode="layer"
     id="layer1"
     transform="translate(0,-290.3854)">
    <g
       id="g874"
       style="stroke-width:0.5;stroke-miterlimit:4;stroke-dasharray:none" />
    <g
       id="g1243">
      <g
         id="g1306"
         clip-path="url(#clipPath1402)"
         style="stroke-width:0.3;stroke-miterlimit:4;stroke-dasharray:none">
        <path
           transform="translate(0,5.8333334e-6)"
           inkscape:connector-curvature="0"
           id="path835"
           d="m 0.52916666,289.85623 -1.05833332,1.05834"
           style="stroke-width:0.3;stroke-miterlimit:4;stroke-dasharray:none;fill:none;stroke:#b4da4c;stroke-linecap:butt;stroke-linejoin:miter;stroke-opacity:1" />
        <path
           transform="translate(0,5.8333334e-6)"
           sodipodi:nodetypes="cc"
           inkscape:connector-curvature="0"
           id="path839"
           d="m 2.6458333,289.85623 -3.17499996,3.17502"
           style="stroke-width:0.3;stroke-miterlimit:4;stroke-dasharray:none;fill:none;stroke:#b4da4c;stroke-linecap:butt;stroke-linejoin:miter;stroke-opacity:1" />
        <path
           transform="translate(0,5.8333334e-6)"
           sodipodi:nodetypes="cc"
           inkscape:connector-curvature="0"
           id="path843"
           d="m 4.7625,289.85623 -5.29166666,5.2917"
           style="stroke-width:0.3;stroke-miterlimit:4;stroke-dasharray:none;fill:none;stroke:#b4da4c;stroke-linecap:butt;stroke-linejoin:miter;stroke-opacity:1" />
        <path
           transform="translate(0,5.8333334e-6)"
           sodipodi:nodetypes="cc"
           inkscape:connector-curvature="0"
           id="path847"
           d="m 6.8791667,289.85623 -7.40833336,7.40838"
           style="stroke-width:0.3;stroke-miterlimit:4;stroke-dasharray:none;fill:none;stroke:#b4da4c;stroke-linecap:butt;stroke-linejoin:miter;stroke-opacity:1" />
        <path
           transform="translate(0,5.8333334e-6)"
           sodipodi:nodetypes="cc"
           inkscape:connector-curvature="0"
           id="path851"
           d="M 6.8791667,291.9729 1.5875,297.26461"
           style="stroke-width:0.3;stroke-miterlimit:4;stroke-dasharray:none;fill:none;stroke:#b4da4c;stroke-linecap:butt;stroke-linejoin:miter;stroke-opacity:1" />
        <path
           transform="translate(0,5.8333334e-6)"
           sodipodi:nodetypes="cc"
           inkscape:connector-curvature="0"
           id="path855"
           d="m 6.8791667,294.08957 -3.1749999,3.17504"
           style="stroke-width:0.3;stroke-miterlimit:4;stroke-dasharray:none;fill:none;stroke:#b4da4c;stroke-linecap:butt;stroke-linejoin:miter;stroke-opacity:1" />
        <path
           transform="translate(0,5.8333334e-6)"
           inkscape:connector-curvature="0"
           id="path859"
           d="m 6.879167,296.20627 -1.0583334,1.05834"
           style="stroke-width:0.3;stroke-miterlimit:4;stroke-dasharray:none;fill:none;stroke:#b4da4c;stroke-linecap:butt;stroke-linejoin:miter;stroke-opacity:1" />
      </g>
    </g>
  </g>
</svg>
